20,90.454620758247,71.470468448035
21,14.943058841263,79.654771109667
22,45.2039305044735,64.2214395280337
23,72.2652074968656,56.7744896559787
24,15.0398574295981,13.903841109124
25,27.1620473986238,84.6674530068813
26,84.373034908079,77.4163576791644
27,30.0364972348016,25.8973388950106
28,55.0053282936832,36.4288025902995
29,46.9155122841023,42.605184984055
30,62.3637959704628,79.6667256454747
31,16.7134558453774,22.1599212461812
32,2.90801908672724,62.1568900950872
33,9.16009941163189,74.0095447843884
34,11.2880173513733,49.8594901121761
35,38.4255764271646,58.94207579092
36,9.52147990835952,95.7106993668404
37,85.2285595368286,26.1255328609513
38,87.2753536163935,8.82172103477616
39,81.092820287486,75.5813453629037
40,62.2782992045641,72.4282564148609
41,12.4212228784157,34.1558010267587
42,12.9569177826876,38.1569073919712
43,9.18516087446809,31.5892323537316
44,71.5800152313933,74.272673959021
45,93.2812859989854,89.9428412775094
46,15.5116531325806,73.7944138274888
47,74.9863068489353,94.4282285096674
48,96.6150802962281,34.7127686584661
49,2.44459599794037,96.5947785356751
